{
  "configVersion": 2,
  "packages": [
    {
      "name": "archive",
      "rootUri": "file:///C:/flutter/.pub-cache/hosted/pub.dartlang.org/archive-2.0.13",
      "packageUri": "lib/",
      "languageVersion": "2.0"
    },
    {
      "name": "args",
      "rootUri": "file:///C:/flutter/.pub-cache/hosted/pub.dartlang.org/args-1.6.0",
      "packageUri": "lib/",
      "languageVersion": "2.3"
    },
    {
      "name": "async",
      "rootUri": "file:///C:/flutter/.pub-cache/hosted/pub.dartlang.org/async-2.5.0-nullsafety.1",
      "packageUri": "lib/",
      "languageVersion": "2.10"
    },
    {
      "name": "boolean_selector",
      "rootUri": "file:///C:/flutter/.pub-cache/hosted/pub.dartlang.org/boolean_selector-2.1.0-nullsafety.1",
      "packageUri": "lib/",
      "languageVersion": "2.10"
    },
    {
      "name": "characters",
      "rootUri": "file:///C:/flutter/.pub-cache/hosted/pub.dartlang.org/characters-1.1.0-nullsafety.3",
      "packageUri": "lib/",
      "languageVersion": "2.10"
    },
    {
      "name": "charcode",
      "rootUri": "file:///C:/flutter/.pub-cache/hosted/pub.dartlang.org/charcode-1.2.0-nullsafety.1",
      "packageUri": "lib/",
      "languageVersion": "2.10"
    },
    {
      "name": "clock",
      "rootUri": "file:///C:/flutter/.pub-cache/hosted/pub.dartlang.org/clock-1.1.0-nullsafety.1",
      "packageUri": "lib/",
      "languageVersion": "2.10"
    },
    {
      "name": "collection",
      "rootUri": "file:///C:/flutter/.pub-cache/hosted/pub.dartlang.org/collection-1.15.0-nullsafety.3",
      "packageUri": "lib/",
      "languageVersion": "2.10"
    },
    {
      "name": "connectivity",
      "rootUri": "file:///C:/flutter/.pub-cache/hosted/pub.dartlang.org/connectivity-2.0.2",
      "packageUri": "lib/",
      "languageVersion": "2.1"
    },
    {
      "name": "connectivity_for_web",
      "rootUri": "file:///C:/flutter/.pub-cache/hosted/pub.dartlang.org/connectivity_for_web-0.3.1+4",
      "packageUri": "lib/",
      "languageVersion": "2.6"
    },
    {
      "name": "connectivity_macos",
      "rootUri": "file:///C:/flutter/.pub-cache/hosted/pub.dartlang.org/connectivity_macos-0.1.0+7",
      "packageUri": "lib/",
      "languageVersion": "2.1"
    },
    {
      "name": "connectivity_platform_interface",
      "rootUri": "file:///C:/flutter/.pub-cache/hosted/pub.dartlang.org/connectivity_platform_interface-1.0.6",
      "packageUri": "lib/",
      "languageVersion": "2.1"
    },
    {
      "name": "convert",
      "rootUri": "file:///C:/flutter/.pub-cache/hosted/pub.dartlang.org/convert-2.1.1",
      "packageUri": "lib/",
      "languageVersion": "1.17"
    },
    {
      "name": "crypto",
      "rootUri": "file:///C:/flutter/.pub-cache/hosted/pub.dartlang.org/crypto-2.1.5",
      "packageUri": "lib/",
      "languageVersion": "2.3"
    },
    {
      "name": "csv",
      "rootUri": "file:///C:/flutter/.pub-cache/hosted/pub.dartlang.org/csv-4.1.0",
      "packageUri": "lib/",
      "languageVersion": "2.0"
    },
    {
      "name": "cupertino_icons",
      "rootUri": "file:///C:/flutter/.pub-cache/hosted/pub.dartlang.org/cupertino_icons-1.0.0",
      "packageUri": "lib/",
      "languageVersion": "2.0"
    },
    {
      "name": "excel",
      "rootUri": "file:///C:/flutter/.pub-cache/hosted/pub.dartlang.org/excel-1.1.5",
      "packageUri": "lib/",
      "languageVersion": "2.7"
    },
    {
      "name": "fake_async",
      "rootUri": "file:///C:/flutter/.pub-cache/hosted/pub.dartlang.org/fake_async-1.2.0-nullsafety.1",
      "packageUri": "lib/",
      "languageVersion": "2.10"
    },
    {
      "name": "ffi",
      "rootUri": "file:///C:/flutter/.pub-cache/hosted/pub.dartlang.org/ffi-0.1.3",
      "packageUri": "lib/",
      "languageVersion": "2.6"
    },
    {
      "name": "file",
      "rootUri": "file:///C:/flutter/.pub-cache/hosted/pub.dartlang.org/file-5.2.1",
      "packageUri": "lib/",
      "languageVersion": "2.2"
    },
    {
      "name": "file_picker",
      "rootUri": "file:///C:/flutter/.pub-cache/hosted/pub.dartlang.org/file_picker-2.1.0",
      "packageUri": "lib/",
      "languageVersion": "2.0"
    },
    {
      "name": "flutter",
      "rootUri": "file:///C:/flutter/packages/flutter",
      "packageUri": "lib/",
      "languageVersion": "2.10"
    },
    {
      "name": "flutter_plugin_android_lifecycle",
      "rootUri": "file:///C:/flutter/.pub-cache/hosted/pub.dartlang.org/flutter_plugin_android_lifecycle-1.0.11",
      "packageUri": "lib/",
      "languageVersion": "2.1"
    },
    {
      "name": "flutter_test",
      "rootUri": "file:///C:/flutter/packages/flutter_test",
      "packageUri": "lib/",
      "languageVersion": "2.2"
    },
    {
      "name": "flutter_web_plugins",
      "rootUri": "file:///C:/flutter/packages/flutter_web_plugins",
      "packageUri": "lib/",
      "languageVersion": "2.0"
    },
    {
      "name": "intl",
      "rootUri": "file:///C:/flutter/.pub-cache/hosted/pub.dartlang.org/intl-0.16.1",
      "packageUri": "lib/",
      "languageVersion": "2.5"
    },
    {
      "name": "logging",
      "rootUri": "file:///C:/flutter/.pub-cache/hosted/pub.dartlang.org/logging-0.11.4",
      "packageUri": "lib/",
      "languageVersion": "2.0"
    },
    {
      "name": "mailer",
      "rootUri": "file:///C:/flutter/.pub-cache/hosted/pub.dartlang.org/mailer-3.2.1",
      "packageUri": "lib/",
      "languageVersion": "2.2"
    },
    {
      "name": "matcher",
      "rootUri": "file:///C:/flutter/.pub-cache/hosted/pub.dartlang.org/matcher-0.12.10-nullsafety.1",
      "packageUri": "lib/",
      "languageVersion": "2.10"
    },
    {
      "name": "meta",
      "rootUri": "file:///C:/flutter/.pub-cache/hosted/pub.dartlang.org/meta-1.3.0-nullsafety.3",
      "packageUri": "lib/",
      "languageVersion": "2.10"
    },
    {
      "name": "mime",
      "rootUri": "file:///C:/flutter/.pub-cache/hosted/pub.dartlang.org/mime-0.9.7",
      "packageUri": "lib/",
      "languageVersion": "2.0"
    },
    {
      "name": "path",
      "rootUri": "file:///C:/flutter/.pub-cache/hosted/pub.dartlang.org/path-1.8.0-nullsafety.1",
      "packageUri": "lib/",
      "languageVersion": "2.10"
    },
    {
      "name": "path_provider",
      "rootUri": "file:///C:/flutter/.pub-cache/hosted/pub.dartlang.org/path_provider-1.6.24",
      "packageUri": "lib/",
      "languageVersion": "2.1"
    },
    {
      "name": "path_provider_linux",
      "rootUri": "file:///C:/flutter/.pub-cache/hosted/pub.dartlang.org/path_provider_linux-0.0.1+2",
      "packageUri": "lib/",
      "languageVersion": "2.1"
    },
    {
      "name": "path_provider_macos",
      "rootUri": "file:///C:/flutter/.pub-cache/hosted/pub.dartlang.org/path_provider_macos-0.0.4+6",
      "packageUri": "lib/",
      "languageVersion": "2.1"
    },
    {
      "name": "path_provider_platform_interface",
      "rootUri": "file:///C:/flutter/.pub-cache/hosted/pub.dartlang.org/path_provider_platform_interface-1.0.4",
      "packageUri": "lib/",
      "languageVersion": "2.1"
    },
    {
      "name": "path_provider_windows",
      "rootUri": "file:///C:/flutter/.pub-cache/hosted/pub.dartlang.org/path_provider_windows-0.0.4+3",
      "packageUri": "lib/",
      "languageVersion": "2.1"
    },
    {
      "name": "pedantic",
      "rootUri": "file:///C:/flutter/.pub-cache/hosted/pub.dartlang.org/pedantic-1.9.2",
      "packageUri": "lib/",
      "languageVersion": "2.1"
    },
    {
      "name": "petitparser",
      "rootUri": "file:///C:/flutter/.pub-cache/hosted/pub.dartlang.org/petitparser-3.1.0",
      "packageUri": "lib/",
      "languageVersion": "2.7"
    },
    {
      "name": "platform",
      "rootUri": "file:///C:/flutter/.pub-cache/hosted/pub.dartlang.org/platform-2.2.1",
      "packageUri": "lib/",
      "languageVersion": "1.24"
    },
    {
      "name": "plugin_platform_interface",
      "rootUri": "file:///C:/flutter/.pub-cache/hosted/pub.dartlang.org/plugin_platform_interface-1.0.3",
      "packageUri": "lib/",
      "languageVersion": "2.1"
    },
    {
      "name": "process",
      "rootUri": "file:///C:/flutter/.pub-cache/hosted/pub.dartlang.org/process-3.0.13",
      "packageUri": "lib/",
      "languageVersion": "2.0"
    },
    {
      "name": "sky_engine",
      "rootUri": "file:///C:/flutter/bin/cache/pkg/sky_engine",
      "packageUri": "lib/",
      "languageVersion": "1.11"
    },
    {
      "name": "source_span",
      "rootUri": "file:///C:/flutter/.pub-cache/hosted/pub.dartlang.org/source_span-1.8.0-nullsafety.2",
      "packageUri": "lib/",
      "languageVersion": "2.10"
    },
    {
      "name": "sqflite",
      "rootUri": "file:///C:/flutter/.pub-cache/hosted/pub.dartlang.org/sqflite-1.3.2+1",
      "packageUri": "lib/",
      "languageVersion": "2.10"
    },
    {
      "name": "sqflite_common",
      "rootUri": "file:///C:/flutter/.pub-cache/hosted/pub.dartlang.org/sqflite_common-1.0.2+1",
      "packageUri": "lib/",
      "languageVersion": "2.7"
    },
    {
      "name": "stack_trace",
      "rootUri": "file:///C:/flutter/.pub-cache/hosted/pub.dartlang.org/stack_trace-1.10.0-nullsafety.1",
      "packageUri": "lib/",
      "languageVersion": "2.10"
    },
    {
      "name": "stream_channel",
      "rootUri": "file:///C:/flutter/.pub-cache/hosted/pub.dartlang.org/stream_channel-2.1.0-nullsafety.1",
      "packageUri": "lib/",
      "languageVersion": "2.10"
    },
    {
      "name": "string_scanner",
      "rootUri": "file:///C:/flutter/.pub-cache/hosted/pub.dartlang.org/string_scanner-1.1.0-nullsafety.1",
      "packageUri": "lib/",
      "languageVersion": "2.10"
    },
    {
      "name": "synchronized",
      "rootUri": "file:///C:/flutter/.pub-cache/hosted/pub.dartlang.org/synchronized-2.2.0+2",
      "packageUri": "lib/",
      "languageVersion": "2.8"
    },
    {
      "name": "term_glyph",
      "rootUri": "file:///C:/flutter/.pub-cache/hosted/pub.dartlang.org/term_glyph-1.2.0-nullsafety.1",
      "packageUri": "lib/",
      "languageVersion": "2.10"
    },
    {
      "name": "test_api",
      "rootUri": "file:///C:/flutter/.pub-cache/hosted/pub.dartlang.org/test_api-0.2.19-nullsafety.2",
      "packageUri": "lib/",
      "languageVersion": "2.10"
    },
    {
      "name": "toast",
      "rootUri": "file:///C:/flutter/.pub-cache/hosted/pub.dartlang.org/toast-0.1.5",
      "packageUri": "lib/",
      "languageVersion": "2.0"
    },
    {
      "name": "typed_data",
      "rootUri": "file:///C:/flutter/.pub-cache/hosted/pub.dartlang.org/typed_data-1.3.0-nullsafety.3",
      "packageUri": "lib/",
      "languageVersion": "2.10"
    },
    {
      "name": "vector_math",
      "rootUri": "file:///C:/flutter/.pub-cache/hosted/pub.dartlang.org/vector_math-2.1.0-nullsafety.3",
      "packageUri": "lib/",
      "languageVersion": "2.10"
    },
    {
      "name": "win32",
      "rootUri": "file:///C:/flutter/.pub-cache/hosted/pub.dartlang.org/win32-1.7.4",
      "packageUri": "lib/",
      "languageVersion": "2.7"
    },
    {
      "name": "xdg_directories",
      "rootUri": "file:///C:/flutter/.pub-cache/hosted/pub.dartlang.org/xdg_directories-0.1.2",
      "packageUri": "lib/",
      "languageVersion": "2.3"
    },
    {
      "name": "xml",
      "rootUri": "file:///C:/flutter/.pub-cache/hosted/pub.dartlang.org/xml-4.5.1",
      "packageUri": "lib/",
      "languageVersion": "2.7"
    },
    {
      "name": "asset_inven",
      "rootUri": "../",
      "packageUri": "lib/",
      "languageVersion": "2.7"
    }
  ],
  "generated": "2020-12-17T01:10:38.140610Z",
  "generator": "pub",
  "generatorVersion": "2.10.4"
}
